…
```r
tibble(
  a = lubridate::now() + runif(1e3) * 86400,
  b = lubridate::today() + runif(1e3) * 30,
  c = 1:1e3,
  d = runif(1e3),
  e = sample(letters, 1e3, replace = TRUE)
)
```

```
## # A tibble: 1,000 x 5
##    a                   b              c      d e    
##    <dttm>              <date>     <int>  <dbl> <chr>
##  1 2020-08-04 21:46:51 2020-08-12     1 0.652  c    
##  2 2020-08-04 21:38:27 2020-08-17     2 0.620  v    
##  3 2020-08-04 23:03:16 2020-08-07     3 0.191  x    
##  4 2020-08-04 18:35:35 2020-08-19     4 0.110  b    
##  5 2020-08-05 10:55:48 2020-08-09     5 0.0832 s    
##  6 2020-08-04 16:58:52 2020-08-05     6 0.265  x    
##  7 2020-08-04 15:35:38 2020-08-30     7 0.799  u    
##  8 2020-08-05 03:17:02 2020-08-26     8 0.698  m    
##  9 2020-08-04 16:00:43 2020-08-21     9 0.850  t    
## 10 2020-08-05 00:41:40 2020-08-06    10 0.649  i    
## # … with 990 more rows
```
```r
library(nycflights13)
```

```
## Warning: package 'nycflights13' was built under R version 4.0.2
```

```r
nycflights13::flights %>% 
  print(n = 10, width = Inf)
```

```
## # A tibble: 336,776 x 19
##     year month   day dep_time sched_dep_time dep_delay arr_time sched_arr_time
##    <int> <int> <int>    <int>          <int>     <dbl>    <int>          <int>
##  1  2013     1     1      517            515         2      830            819
##  2  2013     1     1      533            529         4      850            830
##  3  2013     1     1      542            540         2      923            850
##  4  2013     1     1      544            545        -1     1004           1022
##  5  2013     1     1      554            600        -6      812            837
##  6  2013     1     1      554            558        -4      740            728
##  7  2013     1     1      555            600        -5      913            854
##  8  2013     1     1      557            600        -3      709            723
##  9  2013     1     1      557            600        -3      838            846
## 10  2013     1     1      558            600        -2      753            745
##    arr_delay carrier flight tailnum origin dest  air_time distance  hour minute
##        <dbl> <chr>    <int> <chr>   <chr>  <chr>    <dbl>    <dbl> <dbl>  <dbl>
##  1        11 UA        1545 N14228  EWR    IAH        227     1400     5     15
##  2        20 UA        1714 N24211  LGA    IAH        227     1416     5     29
##  3        33 AA        1141 N619AA  JFK    MIA        160     1089     5     40
##  4       -18 B6         725 N804JB  JFK    BQN        183     1576     5     45
##  5       -25 DL         461 N668DN  LGA    ATL        116      762     6      0
##  6        12 UA        1696 N39463  EWR    ORD        150      719     5     58
##  7        19 B6         507 N516JB  EWR    FLL        158     1065     6      0
##  8       -14 EV        5708 N829AS  LGA    IAD         53      229     6      0
##  9        -8 B6          79 N593JB  JFK    MCO        140      944     6      0
## 10         8 AA         301 N3ALAA  LGA    ORD        138      733     6      0
##    time_hour          
##    <dttm>             
##  1 2013-01-01 05:00:00
##  2 2013-01-01 05:00:00
##  3 2013-01-01 05:00:00
##  4 2013-01-01 05:00:00
##  5 2013-01-01 06:00:00
##  6 2013-01-01 05:00:00
##  7 2013-01-01 06:00:00
##  8 2013-01-01 06:00:00
##  9 2013-01-01 06:00:00
## 10 2013-01-01 06:00:00
## # … with 336,766 more rows
```
…
6. What option controls how many additional column names are printed at the footer of a tibble?

n_extra argument in print function on a tibble

```r
package?tibble
?print.tbl

print(nycflights13::flights, n_extra=5)
```

```
## # A tibble: 336,776 x 19
##     year month   day dep_time sched_dep_time dep_delay arr_time sched_arr_time
##    <int> <int> <int>    <int>          <int>     <dbl>    <int>          <int>
##  1  2013     1     1      517            515         2      830            819
##  2  2013     1     1      533            529         4      850            830
##  3  2013     1     1      542            540         2      923            850
##  4  2013     1     1      544            545        -1     1004           1022
##  5  2013     1     1      554            600        -6      812            837
##  6  2013     1     1      554            558        -4      740            728
##  7  2013     1     1      555            600        -5      913            854
##  8  2013     1     1      557            600        -3      709            723
##  9  2013     1     1      557            600        -3      838            846
## 10  2013     1     1      558            600        -2      753            745
## # … with 336,766 more rows, and 11 more variables: arr_delay <dbl>,
## #   carrier <chr>, flight <int>, tailnum <chr>, origin <chr>, …
```
